{
  "prepare_queue": {
    "installed": [],
    "uninstalled": []
  },
  "config_munge": {
    "files": {}
  },
  "installed_plugins": {
    "cordova-plugin-whitelist": {
      "PACKAGE_NAME": "br.ufpr.sept.ti026.tmdbclient"
    },
    "cordova-plugin-network-information": {
      "PACKAGE_NAME": "br.ufpr.sept.ti026.tmdbclient"
    }
  },
  "dependent_plugins": {}
}